…
    ## The following objects are masked from 'package:base':
    ## 
    ##     intersect, setdiff, setequal, union

``` r
parcial_anonimo %>%
  filter(Venta<0) %>%
  group_by(Territorio) %>%
  summarise(n=sum(Venta)) %>%
  arrange((n))
```

    ## # A tibble: 79 × 2
    ##    Territorio       n
    ##    <chr>        <dbl>
    ##  1 f7dfc635   -14985.
    ##  2 77192d63    -5641.
    ##  3 72520ba2    -3761.
    ##  4 69c1b705    -3370.
    ##  5 1d407777    -3300.
    ##  6 bc8e06ed    -3269.
    ##  7 2e812869    -3056.
    ##  8 67e9cc18    -2721.
    ##  9 8f79b7f8    -1858.
    ## 10 a0d39798    -1779.
    ## # ℹ 69 more rows
…
